<svg width="28" height="28" viewBox="0 0 28 28" fill="none" xmlns="http://www.w3.org/2000/svg">
<path d="M17.6266 9.72L11.9066 15.4533L9.70663 13.2533C9.5871 13.1138 9.44001 13.0004 9.27459 12.9204C9.10917 12.8403 8.929 12.7954 8.74537 12.7883C8.56174 12.7812 8.37863 12.8121 8.20753 12.8792C8.03643 12.9462 7.88104 13.0479 7.7511 13.1778C7.62116 13.3077 7.51948 13.4631 7.45245 13.6342C7.38542 13.8053 7.35447 13.9884 7.36157 14.1721C7.36866 14.3557 7.41363 14.5359 7.49366 14.7013C7.5737 14.8667 7.68706 15.0138 7.82663 15.1333L10.96 18.28C11.0846 18.4036 11.2323 18.5013 11.3948 18.5677C11.5572 18.634 11.7312 18.6677 11.9066 18.6667C12.2564 18.6652 12.5916 18.5263 12.84 18.28L19.5066 11.6133C19.6316 11.4894 19.7308 11.3419 19.7985 11.1794C19.8662 11.017 19.901 10.8427 19.901 10.6667C19.901 10.4907 19.8662 10.3164 19.7985 10.1539C19.7308 9.99142 19.6316 9.84395 19.5066 9.72C19.2568 9.47167 18.9189 9.33228 18.5666 9.33228C18.2144 9.33228 17.8764 9.47167 17.6266 9.72ZM14 0.666668C11.3629 0.666668 8.78502 1.44865 6.59236 2.91374C4.39971 4.37883 2.69074 6.46121 1.68157 8.89756C0.672403 11.3339 0.408359 14.0148 0.922828 16.6012C1.4373 19.1876 2.70717 21.5634 4.57188 23.4281C6.43658 25.2928 8.81235 26.5627 11.3988 27.0771C13.9852 27.5916 16.6661 27.3276 19.1024 26.3184C21.5388 25.3092 23.6211 23.6003 25.0862 21.4076C26.5513 19.2149 27.3333 16.6371 27.3333 14C27.3333 12.249 26.9884 10.5152 26.3184 8.89756C25.6483 7.27988 24.6662 5.81003 23.4281 4.57191C22.1899 3.3338 20.7201 2.35167 19.1024 1.68161C17.4847 1.01154 15.7509 0.666668 14 0.666668ZM14 24.6667C11.8903 24.6667 9.82801 24.0411 8.07388 22.869C6.31976 21.6969 4.95259 20.031 4.14525 18.082C3.33792 16.1329 3.12668 13.9882 3.53826 11.919C3.94983 9.84991 4.96573 7.94929 6.45749 6.45753C7.94925 4.96577 9.84987 3.94987 11.919 3.53829C13.9881 3.12672 16.1328 3.33795 18.0819 4.14529C20.031 4.95262 21.6969 6.31979 22.869 8.07392C24.041 9.82804 24.6666 11.8903 24.6666 14C24.6666 16.829 23.5428 19.5421 21.5424 21.5425C19.5421 23.5429 16.8289 24.6667 14 24.6667Z" fill="#6FCF97"/>
</svg>
